Overview of Data Retrieval Workflow
…
test_cbioportal_db()
#> ✔ You are successfully connected!

Get Study Metadata

Now that we are successfully connected, we may want to view all
studies available for our chosen database to find the correct
study_id corresponding to the data we want to pull. All
studies have a unique identifier in the database. You can view all
studies available in your database with the following:

all_studies <- available_studies()
all_studies
#> # A tibble: 353 × 13
#>    studyId        name  descr…¹ publi…² groups status impor…³ allSa…⁴ readP…⁵ cance…⁶
#>    <chr>          <chr> <chr>   <lgl>   <chr>   <int> <chr>     <int> <lgl>   <chr>  
#>  1 acc_tcga       Adre… "TCGA … TRUE    "PUBL…      0 2022-0…      92 TRUE    acc    
#>  2 bcc_unige_2016 Basa… "Whole… TRUE    "PUBL…      0 2022-0…     293 TRUE    bcc    
#>  3 ampca_bcm_2016 Ampu… "Exome… TRUE    "PUBL…      0 2022-0…     160 TRUE    ampca  
#>  4 blca_dfarber_… Blad… "Whole… TRUE    "PUBL…      0 2022-0…      50 TRUE    blca   
#>  5 blca_mskcc_so… Blad… "Compr… TRUE    "PUBL…      0 2022-0…      97 TRUE    blca   
#>  6 blca_bgi       Blad… "Whole… TRUE    "PUBL…      0 2022-0…      99 TRUE    blca   
#>  7 blca_mskcc_so… Blad… "Genom… TRUE    "PUBL…      0 2022-0…     109 TRUE    blca   
#>  8 all_stjude_20… Hypo… "Whole… TRUE    ""          0 2022-0…      44 TRUE    myeloid
#>  9 acyc_fmi_2014  Aden… "Targe… TRUE    "ACYC…      0 2022-0…      28 TRUE    acyc   
#> 10 acyc_sanger_2… Aden… "Whole… TRUE    "ACYC…      0 2022-0…      24 TRUE    acyc   
#> # … with 343 more rows, 3 more variables: referenceGenome <chr>, pmid <chr>,
#> #   citation <chr>, and abbreviated variable names ¹​description, ²​publicStudy,
#> #   ³​importDate, ⁴​allSampleCount, ⁵​readPermission, ⁶​cancerTypeId
…
df_pairs <- bind_rows(s1, s2) %>%
  select(-sampleId)

df_pairs <- df_pairs %>%
  select(patientId, studyId)

Now we pass this data frame to
get_genetics_by_patient()

all_patient_clinical <- get_clinical_by_patient(patient_study_pairs = df_pairs,
                                                clinical_attribute = in_both)

all_patient_clinical %>%
  select(-contains("unique"))
#> # A tibble: 34 × 4
#>    patientId studyId         clinicalAttributeId value 
#>    <chr>     <chr>           <chr>               <chr> 
#>  1 P-0001453 blca_nmibc_2017 SAMPLE_COUNT        1     
#>  2 P-0001453 blca_nmibc_2017 SEX                 Male  
#>  3 P-0002166 blca_nmibc_2017 SAMPLE_COUNT        1     
#>  4 P-0002166 blca_nmibc_2017 SEX                 Male  
#>  5 P-0003238 blca_nmibc_2017 SAMPLE_COUNT        1     
#>  6 P-0003238 blca_nmibc_2017 SEX                 Male  
#>  7 P-0003257 blca_nmibc_2017 SAMPLE_COUNT        1     
#>  8 P-0003257 blca_nmibc_2017 SEX                 Female
#>  9 P-0003261 blca_nmibc_2017 SAMPLE_COUNT        1     
#> 10 P-0003261 blca_nmibc_2017 SEX                 Male  
#> # … with 24 more rows
